…
formatted_data =
  homicide_data |>
  mutate(combined_city_state = paste(city, state, sep = ", ")) |> 
  group_by(combined_city_state) |> 
  summarise(
    total_cases = n(), 
    unresolved_cases = sum(disposition %in% c("Closed without arrest", "Open/No arrest"))  
  )

formatted_data = formatted_data[formatted_data$combined_city_state != "Tulsa, AL", ] 
formatted_data
```

    ## # A tibble: 50 × 3
    ##    combined_city_state total_cases unresolved_cases
    ##    <chr>                     <int>            <int>
    ##  1 Albuquerque, NM             378              146
    ##  2 Atlanta, GA                 973              373
    ##  3 Baltimore, MD              2827             1825
    ##  4 Baton Rouge, LA             424              196
    ##  5 Birmingham, AL              800              347
    ##  6 Boston, MA                  614              310
    ##  7 Buffalo, NY                 521              319
    ##  8 Charlotte, NC               687              206
    ##  9 Chicago, IL                5535             4073
    ## 10 Cincinnati, OH              694              309
    ## # ℹ 40 more rows
…
tidy_city_df = analysis_df |> 
  mutate(ci_range = paste(conf.low, conf.high, sep = ", ")) |> 
  rename(proportion_unresolved = estimate) |> 
  select(combined_city_state, proportion_unresolved, ci_range)

tidy_city_df
```

    ## # A tibble: 50 × 3
    ##    combined_city_state proportion_unresolved ci_range                           
    ##    <chr>                               <dbl> <chr>                              
    ##  1 Albuquerque, NM                     0.386 0.337260384254284, 0.4375766065555…
    ##  2 Atlanta, GA                         0.383 0.352811897036302, 0.4148218839536…
    ##  3 Baltimore, MD                       0.646 0.627562457662644, 0.6631598604016…
    ##  4 Baton Rouge, LA                     0.462 0.414198741860307, 0.5110239600187…
    ##  5 Birmingham, AL                      0.434 0.399188948632167, 0.4689557481890…
    ##  6 Boston, MA                          0.505 0.464621930200304, 0.5450880517726…
    ##  7 Buffalo, NY                         0.612 0.568798964634228, 0.6540879392535…
    ##  8 Charlotte, NC                       0.300 0.26608198188312, 0.335899860867845
    ##  9 Chicago, IL                         0.736 0.723995888425454, 0.7473997873066…
    ## 10 Cincinnati, OH                      0.445 0.407960574220688, 0.4831438806189…
    ## # ℹ 40 more rows
…
``` r
final_dataset <- extracted_details %>%
  bind_cols(combined_data) %>%
  select(-file_name) %>%
  pivot_longer(cols = starts_with("week"),
               names_to = "Week",
               values_to = "Observation") %>%
  group_by(participant_id, group_type)

final_dataset
```

    ## # A tibble: 160 × 4
    ## # Groups:   participant_id, group_type [20]
    ##    participant_id group_type Week   Observation
    ##    <chr>          <chr>      <chr>        <dbl>
    ##  1 01             con        week_1        0.2 
    ##  2 01             con        week_2       -1.31
    ##  3 01             con        week_3        0.66
    ##  4 01             con        week_4        1.96
    ##  5 01             con        week_5        0.23
    ##  6 01             con        week_6        1.09
    ##  7 01             con        week_7        0.05
    ##  8 01             con        week_8        1.94
    ##  9 02             con        week_1        1.13
    ## 10 02             con        week_2       -0.88
    ## # ℹ 150 more rows
…
